M48
; DRILL file {KiCad (5.1.5-0-10_14)} date 2020 May 25, Monday 11:32:18
; FORMAT={-:-/ absolute / metric / decimal}
; #@! TF.CreationDate,2020-05-25T11:32:18+02:00
; #@! TF.GenerationSoftware,Kicad,Pcbnew,(5.1.5-0-10_14)
; #@! TF.FileFunction,NonPlated,1,2,NPTH
FMAT,2
METRIC
%
G90
G05
T0
M30
