(module BarduinoMicroUSB (layer F.Cu) (tedit 5E9848CB)
  (fp_text reference REF** (at 0 0.5) (layer F.SilkS)
    (effects (font (size 1 1) (thickness 0.15)))
  )
  (fp_text value BarduinoMicroUSB (at 0 -0.5) (layer F.Fab)
    (effects (font (size 1 1) (thickness 0.15)))
  )
  (fp_line (start -14.7828 19.579) (end 25.31872 19.54344) (layer F.SilkS) (width 0.15))
  (fp_line (start 25.31872 19.54344) (end 25.31872 -30.45656) (layer F.SilkS) (width 0.15))
  (fp_line (start 25.31872 -30.45656) (end -14.78128 -30.45656) (layer F.SilkS) (width 0.15))
  (fp_line (start -14.78128 -30.45656) (end -14.7828 19.579) (layer F.SilkS) (width 0.15))
  (pad 1 thru_hole rect (at -12.7 -12.7) (size 3 1.524) (drill 0.762) (layers *.Cu *.Mask))
  (pad 2 thru_hole rect (at -12.7 -10.16) (size 3 1.524) (drill 0.762) (layers *.Cu *.Mask))
  (pad 3 thru_hole rect (at -12.7 -7.62) (size 3 1.524) (drill 0.762) (layers *.Cu *.Mask))
  (pad 4 thru_hole rect (at -12.7 -5.08) (size 3 1.524) (drill 0.762) (layers *.Cu *.Mask))
  (pad 5 thru_hole rect (at -12.7 -2.54) (size 3 1.524) (drill 0.762) (layers *.Cu *.Mask))
  (pad 6 thru_hole rect (at -12.7 0) (size 3 1.524) (drill 0.762) (layers *.Cu *.Mask))
  (pad 7 thru_hole rect (at -12.7 2.54) (size 3 1.524) (drill 0.762) (layers *.Cu *.Mask))
  (pad 8 thru_hole rect (at -12.7 5.08) (size 3 1.524) (drill 0.762) (layers *.Cu *.Mask))
  (pad 9 thru_hole rect (at -12.7 7.62) (size 3 1.524) (drill 0.762) (layers *.Cu *.Mask))
  (pad 10 thru_hole rect (at -12.7 10.16) (size 3 1.524) (drill 0.762) (layers *.Cu *.Mask))
  (pad 11 thru_hole rect (at -12.7 12.7) (size 3 1.524) (drill 0.762) (layers *.Cu *.Mask))
  (pad 12 thru_hole rect (at -12.7 15.24) (size 3 1.524) (drill 0.762) (layers *.Cu *.Mask))
  (pad 13 thru_hole rect (at -12.7 17.78) (size 3 1.524) (drill 0.762) (layers *.Cu *.Mask))
  (pad 14 thru_hole rect (at -9.06 17.78) (size 1.524 3) (drill 0.762) (layers *.Cu *.Mask))
  (pad 15 thru_hole rect (at -6.52 17.78) (size 1.524 3) (drill 0.762) (layers *.Cu *.Mask))
  (pad 16 thru_hole rect (at -3.98 17.78) (size 1.524 3) (drill 0.762) (layers *.Cu *.Mask))
  (pad 17 thru_hole rect (at -1.44 17.78) (size 1.524 3) (drill 0.762) (layers *.Cu *.Mask))
  (pad 18 thru_hole rect (at 1.1 17.78) (size 1.524 3) (drill 0.762) (layers *.Cu *.Mask))
  (pad 19 thru_hole rect (at 3.64 17.78) (size 1.524 3) (drill 0.762) (layers *.Cu *.Mask))
  (pad 20 thru_hole rect (at 6.18 17.78) (size 1.524 3) (drill 0.762) (layers *.Cu *.Mask))
  (pad 21 thru_hole rect (at 8.72 17.78) (size 1.524 3) (drill 0.762) (layers *.Cu *.Mask))
  (pad 22 thru_hole rect (at 11.26 17.78) (size 1.524 3) (drill 0.762) (layers *.Cu *.Mask))
  (pad 23 thru_hole rect (at 23.1 17.78) (size 3 1.524) (drill 0.762) (layers *.Cu *.Mask))
  (pad 24 thru_hole rect (at 23.1 15.24) (size 3 1.524) (drill 0.762) (layers *.Cu *.Mask))
  (pad 25 thru_hole rect (at 23.1 12.7) (size 3 1.524) (drill 0.762) (layers *.Cu *.Mask))
  (pad 26 thru_hole rect (at 23.1 10.16) (size 3 1.524) (drill 0.762) (layers *.Cu *.Mask))
  (pad 27 thru_hole rect (at 23.1 7.62) (size 3 1.524) (drill 0.762) (layers *.Cu *.Mask))
  (pad 28 thru_hole rect (at 23.1 5.08) (size 3 1.524) (drill 0.762) (layers *.Cu *.Mask))
  (pad 29 thru_hole rect (at 23.1 2.54) (size 3 1.524) (drill 0.762) (layers *.Cu *.Mask))
  (pad 30 thru_hole rect (at 23.1 0) (size 3 1.524) (drill 0.762) (layers *.Cu *.Mask))
  (pad 31 thru_hole rect (at 23.1 -2.54) (size 3 1.524) (drill 0.762) (layers *.Cu *.Mask))
  (pad 32 thru_hole rect (at 23.1 -5.08) (size 3 1.524) (drill 0.762) (layers *.Cu *.Mask))
  (pad 33 thru_hole rect (at 23.1 -7.62) (size 3 1.524) (drill 0.762) (layers *.Cu *.Mask))
  (pad 34 thru_hole rect (at 23.1 -10.16) (size 3 1.524) (drill 0.762) (layers *.Cu *.Mask))
)
