(kicad_pcb (version 20171130) (host pcbnew "(5.1.5)-3")

  (general
    (thickness 1.6)
    (drawings 19)
    (tracks 165)
    (zones 0)
    (modules 14)
    (nets 28)
  )

  (page A4)
  (layers
    (0 F.Cu signal)
    (31 B.Cu signal)
    (32 B.Adhes user)
    (33 F.Adhes user)
    (34 B.Paste user)
    (35 F.Paste user)
    (36 B.SilkS user)
    (37 F.SilkS user)
    (38 B.Mask user)
    (39 F.Mask user)
    (40 Dwgs.User user)
    (41 Cmts.User user)
    (42 Eco1.User user)
    (43 Eco2.User user)
    (44 Edge.Cuts user)
    (45 Margin user)
    (46 B.CrtYd user)
    (47 F.CrtYd user)
    (48 B.Fab user)
    (49 F.Fab user)
  )

  (setup
    (last_trace_width 0.4)
    (trace_clearance 0.4)
    (zone_clearance 0.508)
    (zone_45_only no)
    (trace_min 0.2)
    (via_size 0.8)
    (via_drill 0.4)
    (via_min_size 0.4)
    (via_min_drill 0.3)
    (uvia_size 0.3)
    (uvia_drill 0.1)
    (uvias_allowed no)
    (uvia_min_size 0.2)
    (uvia_min_drill 0.1)
    (edge_width 0.05)
    (segment_width 0.2)
    (pcb_text_width 0.3)
    (pcb_text_size 1.5 1.5)
    (mod_edge_width 0.12)
    (mod_text_size 1 1)
    (mod_text_width 0.15)
    (pad_size 1.524 1.524)
    (pad_drill 0.762)
    (pad_to_mask_clearance 0.051)
    (solder_mask_min_width 0.25)
    (aux_axis_origin 0 0)
    (visible_elements FFFFFF7F)
    (pcbplotparams
      (layerselection 0x010fc_ffffffff)
      (usegerberextensions false)
      (usegerberattributes false)
      (usegerberadvancedattributes false)
      (creategerberjobfile false)
      (excludeedgelayer true)
      (linewidth 0.100000)
      (plotframeref false)
      (viasonmask false)
      (mode 1)
      (useauxorigin false)
      (hpglpennumber 1)
      (hpglpenspeed 20)
      (hpglpendiameter 15.000000)
      (psnegative false)
      (psa4output false)
      (plotreference true)
      (plotvalue true)
      (plotinvisibletext false)
      (padsonsilk false)
      (subtractmaskfromsilk false)
      (outputformat 1)
      (mirror false)
      (drillshape 1)
      (scaleselection 1)
      (outputdirectory ""))
  )

  (net 0 "")
  (net 1 GND)
  (net 2 Step_Enable)
  (net 3 3V3)
  (net 4 "Net-(A4-Pad10)")
  (net 5 "Net-(A4-Pad3)")
  (net 6 "Net-(A4-Pad11)")
  (net 7 "Net-(A4-Pad4)")
  (net 8 "Net-(A4-Pad12)")
  (net 9 "Net-(A4-Pad5)")
  (net 10 "Net-(A4-Pad13)")
  (net 11 "Net-(A4-Pad6)")
  (net 12 A_Step)
  (net 13 VMOT)
  (net 14 A_Dir)
  (net 15 C_Dir)
  (net 16 C_Step)
  (net 17 "Net-(A5-Pad13)")
  (net 18 "Net-(A5-Pad6)")
  (net 19 "Net-(A5-Pad5)")
  (net 20 "Net-(A5-Pad12)")
  (net 21 "Net-(A5-Pad4)")
  (net 22 "Net-(A5-Pad11)")
  (net 23 "Net-(A5-Pad3)")
  (net 24 "Net-(A5-Pad10)")
  (net 25 Spindle_Ena)
  (net 26 "Net-(R1-Pad2)")
  (net 27 "Net-(R0-Pad1)")

  (net_class Default "This is the default net class."
    (clearance 0.4)
    (trace_width 0.4)
    (via_dia 0.8)
    (via_drill 0.4)
    (uvia_dia 0.3)
    (uvia_drill 0.1)
    (add_net A_Dir)
    (add_net A_Step)
    (add_net C_Dir)
    (add_net C_Step)
    (add_net "Net-(A4-Pad10)")
    (add_net "Net-(A4-Pad11)")
    (add_net "Net-(A4-Pad12)")
    (add_net "Net-(A4-Pad13)")
    (add_net "Net-(A4-Pad3)")
    (add_net "Net-(A4-Pad4)")
    (add_net "Net-(A4-Pad5)")
    (add_net "Net-(A4-Pad6)")
    (add_net "Net-(A5-Pad10)")
    (add_net "Net-(A5-Pad11)")
    (add_net "Net-(A5-Pad12)")
    (add_net "Net-(A5-Pad13)")
    (add_net "Net-(A5-Pad3)")
    (add_net "Net-(A5-Pad4)")
    (add_net "Net-(A5-Pad5)")
    (add_net "Net-(A5-Pad6)")
    (add_net "Net-(R0-Pad1)")
    (add_net "Net-(R1-Pad2)")
    (add_net Spindle_Ena)
    (add_net Step_Enable)
  )

  (net_class Power ""
    (clearance 0.4)
    (trace_width 1)
    (via_dia 0.8)
    (via_drill 0.4)
    (uvia_dia 0.3)
    (uvia_drill 0.1)
    (add_net 3V3)
    (add_net GND)
    (add_net VMOT)
  )

  (module fab-R1206FAB (layer F.Cu) (tedit 200000) (tstamp 5EDC2990)
    (at 179.07 52.1843 270)
    (path /5EED55DB)
    (attr smd)
    (fp_text reference R1 (at 0.762 -1.778 90) (layer F.SilkS)
      (effects (font (size 1.016 1.016) (thickness 0.1524)))
    )
    (fp_text value 100Ω (at 1.27 1.778 90) (layer F.SilkS)
      (effects (font (size 1.016 1.016) (thickness 0.1524)))
    )
    (fp_line (start -2.032 -1.016) (end 2.032 -1.016) (layer B.SilkS) (width 0.127))
    (fp_line (start 2.032 -1.016) (end 2.032 1.016) (layer B.SilkS) (width 0.127))
    (fp_line (start 2.032 1.016) (end -2.032 1.016) (layer B.SilkS) (width 0.127))
    (fp_line (start -2.032 1.016) (end -2.032 -1.016) (layer B.SilkS) (width 0.127))
    (pad 1 smd rect (at -1.651 0 270) (size 1.27 1.905) (layers F.Cu F.Paste F.Mask)
      (net 3 3V3))
    (pad 2 smd rect (at 1.651 0 270) (size 1.27 1.905) (layers F.Cu F.Paste F.Mask)
      (net 26 "Net-(R1-Pad2)"))
  )

  (module Module:Pololu_Breakout-16_15.2x20.3mm (layer F.Cu) (tedit 58AB602C) (tstamp 5EDC1945)
    (at 203.4794 52.4002)
    (descr "Pololu Breakout 16-pin 15.2x20.3mm 0.6x0.8\\")
    (tags "Pololu Breakout")
    (path /5EEB92FA)
    (fp_text reference A4 (at 6.35 -2.54) (layer F.SilkS)
      (effects (font (size 1 1) (thickness 0.15)))
    )
    (fp_text value Pololu_Breakout_A4988 (at 6.35 20.17) (layer F.Fab)
      (effects (font (size 1 1) (thickness 0.15)))
    )
    (fp_text user %R (at 6.35 0) (layer F.Fab)
      (effects (font (size 1 1) (thickness 0.15)))
    )
    (fp_line (start 11.43 -1.4) (end 11.43 19.18) (layer F.SilkS) (width 0.12))
    (fp_line (start 1.27 1.27) (end 1.27 19.18) (layer F.SilkS) (width 0.12))
    (fp_line (start 0 -1.4) (end -1.4 -1.4) (layer F.SilkS) (width 0.12))
    (fp_line (start -1.4 -1.4) (end -1.4 0) (layer F.SilkS) (width 0.12))
    (fp_line (start 1.27 -1.4) (end 1.27 1.27) (layer F.SilkS) (width 0.12))
    (fp_line (start 1.27 1.27) (end -1.4 1.27) (layer F.SilkS) (width 0.12))
    (fp_line (start -1.4 1.27) (end -1.4 19.18) (layer F.SilkS) (width 0.12))
    (fp_line (start -1.4 19.18) (end 14.1 19.18) (layer F.SilkS) (width 0.12))
    (fp_line (start 14.1 19.18) (end 14.1 -1.4) (layer F.SilkS) (width 0.12))
    (fp_line (start 14.1 -1.4) (end 1.27 -1.4) (layer F.SilkS) (width 0.12))
    (fp_line (start -1.27 0) (end 0 -1.27) (layer F.Fab) (width 0.1))
    (fp_line (start 0 -1.27) (end 13.97 -1.27) (layer F.Fab) (width 0.1))
    (fp_line (start 13.97 -1.27) (end 13.97 19.05) (layer F.Fab) (width 0.1))
    (fp_line (start 13.97 19.05) (end -1.27 19.05) (layer F.Fab) (width 0.1))
    (fp_line (start -1.27 19.05) (end -1.27 0) (layer F.Fab) (width 0.1))
    (fp_line (start -1.53 -1.52) (end 14.21 -1.52) (layer F.CrtYd) (width 0.05))
    (fp_line (start -1.53 -1.52) (end -1.53 19.3) (layer F.CrtYd) (width 0.05))
    (fp_line (start 14.21 19.3) (end 14.21 -1.52) (layer F.CrtYd) (width 0.05))
    (fp_line (start 14.21 19.3) (end -1.53 19.3) (layer F.CrtYd) (width 0.05))
    (pad 1 thru_hole rect (at 0 0) (size 1.6 1.6) (drill 0.8) (layers *.Cu *.Mask)
      (net 1 GND))
    (pad 9 thru_hole oval (at 12.7 17.78) (size 1.6 1.6) (drill 0.8) (layers *.Cu *.Mask)
      (net 2 Step_Enable))
    (pad 2 thru_hole oval (at 0 2.54) (size 1.6 1.6) (drill 0.8) (layers *.Cu *.Mask)
      (net 3 3V3))
    (pad 10 thru_hole oval (at 12.7 15.24) (size 1.6 1.6) (drill 0.8) (layers *.Cu *.Mask)
      (net 4 "Net-(A4-Pad10)"))
    (pad 3 thru_hole oval (at 0 5.08) (size 1.6 1.6) (drill 0.8) (layers *.Cu *.Mask)
      (net 5 "Net-(A4-Pad3)"))
    (pad 11 thru_hole oval (at 12.7 12.7) (size 1.6 1.6) (drill 0.8) (layers *.Cu *.Mask)
      (net 6 "Net-(A4-Pad11)"))
    (pad 4 thru_hole oval (at 0 7.62) (size 1.6 1.6) (drill 0.8) (layers *.Cu *.Mask)
      (net 7 "Net-(A4-Pad4)"))
    (pad 12 thru_hole oval (at 12.7 10.16) (size 1.6 1.6) (drill 0.8) (layers *.Cu *.Mask)
      (net 8 "Net-(A4-Pad12)"))
    (pad 5 thru_hole oval (at 0 10.16) (size 1.6 1.6) (drill 0.8) (layers *.Cu *.Mask)
      (net 9 "Net-(A4-Pad5)"))
    (pad 13 thru_hole oval (at 12.7 7.62) (size 1.6 1.6) (drill 0.8) (layers *.Cu *.Mask)
      (net 10 "Net-(A4-Pad13)"))
    (pad 6 thru_hole oval (at 0 12.7) (size 1.6 1.6) (drill 0.8) (layers *.Cu *.Mask)
      (net 11 "Net-(A4-Pad6)"))
    (pad 14 thru_hole oval (at 12.7 5.08) (size 1.6 1.6) (drill 0.8) (layers *.Cu *.Mask)
      (net 10 "Net-(A4-Pad13)"))
    (pad 7 thru_hole oval (at 0 15.24) (size 1.6 1.6) (drill 0.8) (layers *.Cu *.Mask)
      (net 1 GND))
    (pad 15 thru_hole oval (at 12.7 2.54) (size 1.6 1.6) (drill 0.8) (layers *.Cu *.Mask)
      (net 12 A_Step))
    (pad 8 thru_hole oval (at 0 17.78) (size 1.6 1.6) (drill 0.8) (layers *.Cu *.Mask)
      (net 13 VMOT))
    (pad 16 thru_hole oval (at 12.7 0) (size 1.6 1.6) (drill 0.8) (layers *.Cu *.Mask)
      (net 14 A_Dir))
    (model ${KISYS3DMOD}/Module.3dshapes/Pololu_Breakout-16_15.2x20.3mm.wrl
      (at (xyz 0 0 0))
      (scale (xyz 1 1 1))
      (rotate (xyz 0 0 0))
    )
  )

  (module Module:Pololu_Breakout-16_15.2x20.3mm (layer F.Cu) (tedit 58AB602C) (tstamp 5EDC2A9B)
    (at 204.196801 76.932201)
    (descr "Pololu Breakout 16-pin 15.2x20.3mm 0.6x0.8\\")
    (tags "Pololu Breakout")
    (path /5EEDF422)
    (fp_text reference A5 (at 6.35 -2.54) (layer F.SilkS)
      (effects (font (size 1 1) (thickness 0.15)))
    )
    (fp_text value Pololu_Breakout_A4988 (at 6.35 20.17) (layer F.Fab)
      (effects (font (size 1 1) (thickness 0.15)))
    )
    (fp_line (start 14.21 19.3) (end -1.53 19.3) (layer F.CrtYd) (width 0.05))
    (fp_line (start 14.21 19.3) (end 14.21 -1.52) (layer F.CrtYd) (width 0.05))
    (fp_line (start -1.53 -1.52) (end -1.53 19.3) (layer F.CrtYd) (width 0.05))
    (fp_line (start -1.53 -1.52) (end 14.21 -1.52) (layer F.CrtYd) (width 0.05))
    (fp_line (start -1.27 19.05) (end -1.27 0) (layer F.Fab) (width 0.1))
    (fp_line (start 13.97 19.05) (end -1.27 19.05) (layer F.Fab) (width 0.1))
    (fp_line (start 13.97 -1.27) (end 13.97 19.05) (layer F.Fab) (width 0.1))
    (fp_line (start 0 -1.27) (end 13.97 -1.27) (layer F.Fab) (width 0.1))
    (fp_line (start -1.27 0) (end 0 -1.27) (layer F.Fab) (width 0.1))
    (fp_line (start 14.1 -1.4) (end 1.27 -1.4) (layer F.SilkS) (width 0.12))
    (fp_line (start 14.1 19.18) (end 14.1 -1.4) (layer F.SilkS) (width 0.12))
    (fp_line (start -1.4 19.18) (end 14.1 19.18) (layer F.SilkS) (width 0.12))
    (fp_line (start -1.4 1.27) (end -1.4 19.18) (layer F.SilkS) (width 0.12))
    (fp_line (start 1.27 1.27) (end -1.4 1.27) (layer F.SilkS) (width 0.12))
    (fp_line (start 1.27 -1.4) (end 1.27 1.27) (layer F.SilkS) (width 0.12))
    (fp_line (start -1.4 -1.4) (end -1.4 0) (layer F.SilkS) (width 0.12))
    (fp_line (start 0 -1.4) (end -1.4 -1.4) (layer F.SilkS) (width 0.12))
    (fp_line (start 1.27 1.27) (end 1.27 19.18) (layer F.SilkS) (width 0.12))
    (fp_line (start 11.43 -1.4) (end 11.43 19.18) (layer F.SilkS) (width 0.12))
    (fp_text user %R (at 6.35 0) (layer F.Fab)
      (effects (font (size 1 1) (thickness 0.15)))
    )
    (pad 16 thru_hole oval (at 12.7 0) (size 1.6 1.6) (drill 0.8) (layers *.Cu *.Mask)
      (net 15 C_Dir))
    (pad 8 thru_hole oval (at 0 17.78) (size 1.6 1.6) (drill 0.8) (layers *.Cu *.Mask)
      (net 13 VMOT))
    (pad 15 thru_hole oval (at 12.7 2.54) (size 1.6 1.6) (drill 0.8) (layers *.Cu *.Mask)
      (net 16 C_Step))
    (pad 7 thru_hole oval (at 0 15.24) (size 1.6 1.6) (drill 0.8) (layers *.Cu *.Mask)
      (net 1 GND))
    (pad 14 thru_hole oval (at 12.7 5.08) (size 1.6 1.6) (drill 0.8) (layers *.Cu *.Mask)
      (net 17 "Net-(A5-Pad13)"))
    (pad 6 thru_hole oval (at 0 12.7) (size 1.6 1.6) (drill 0.8) (layers *.Cu *.Mask)
      (net 18 "Net-(A5-Pad6)"))
    (pad 13 thru_hole oval (at 12.7 7.62) (size 1.6 1.6) (drill 0.8) (layers *.Cu *.Mask)
      (net 17 "Net-(A5-Pad13)"))
    (pad 5 thru_hole oval (at 0 10.16) (size 1.6 1.6) (drill 0.8) (layers *.Cu *.Mask)
      (net 19 "Net-(A5-Pad5)"))
    (pad 12 thru_hole oval (at 12.7 10.16) (size 1.6 1.6) (drill 0.8) (layers *.Cu *.Mask)
      (net 20 "Net-(A5-Pad12)"))
    (pad 4 thru_hole oval (at 0 7.62) (size 1.6 1.6) (drill 0.8) (layers *.Cu *.Mask)
      (net 21 "Net-(A5-Pad4)"))
    (pad 11 thru_hole oval (at 12.7 12.7) (size 1.6 1.6) (drill 0.8) (layers *.Cu *.Mask)
      (net 22 "Net-(A5-Pad11)"))
    (pad 3 thru_hole oval (at 0 5.08) (size 1.6 1.6) (drill 0.8) (layers *.Cu *.Mask)
      (net 23 "Net-(A5-Pad3)"))
    (pad 10 thru_hole oval (at 12.7 15.24) (size 1.6 1.6) (drill 0.8) (layers *.Cu *.Mask)
      (net 24 "Net-(A5-Pad10)"))
    (pad 2 thru_hole oval (at 0 2.54) (size 1.6 1.6) (drill 0.8) (layers *.Cu *.Mask)
      (net 3 3V3))
    (pad 9 thru_hole oval (at 12.7 17.78) (size 1.6 1.6) (drill 0.8) (layers *.Cu *.Mask)
      (net 2 Step_Enable))
    (pad 1 thru_hole rect (at 0 0) (size 1.6 1.6) (drill 0.8) (layers *.Cu *.Mask)
      (net 1 GND))
    (model ${KISYS3DMOD}/Module.3dshapes/Pololu_Breakout-16_15.2x20.3mm.wrl
      (at (xyz 0 0 0))
      (scale (xyz 1 1 1))
      (rotate (xyz 0 0 0))
    )
  )

  (module Connector_PinHeader_2.54mm:PinHeader_1x04_P2.54mm_Vertical (layer F.Cu) (tedit 59FED5CC) (tstamp 5EDC1985)
    (at 186.5884 52.5907 90)
    (descr "Through hole straight pin header, 1x04, 2.54mm pitch, single row")
    (tags "Through hole pin header THT 1x04 2.54mm single row")
    (path /5EEBB6F5)
    (fp_text reference A_AXIS4 (at 0 -2.33 90) (layer F.SilkS)
      (effects (font (size 1 1) (thickness 0.15)))
    )
    (fp_text value Conn_01x04_Male (at 0 9.95 90) (layer F.Fab)
      (effects (font (size 1 1) (thickness 0.15)))
    )
    (fp_line (start -0.635 -1.27) (end 1.27 -1.27) (layer F.Fab) (width 0.1))
    (fp_line (start 1.27 -1.27) (end 1.27 8.89) (layer F.Fab) (width 0.1))
    (fp_line (start 1.27 8.89) (end -1.27 8.89) (layer F.Fab) (width 0.1))
    (fp_line (start -1.27 8.89) (end -1.27 -0.635) (layer F.Fab) (width 0.1))
    (fp_line (start -1.27 -0.635) (end -0.635 -1.27) (layer F.Fab) (width 0.1))
    (fp_line (start -1.33 8.95) (end 1.33 8.95) (layer F.SilkS) (width 0.12))
    (fp_line (start -1.33 1.27) (end -1.33 8.95) (layer F.SilkS) (width 0.12))
    (fp_line (start 1.33 1.27) (end 1.33 8.95) (layer F.SilkS) (width 0.12))
    (fp_line (start -1.33 1.27) (end 1.33 1.27) (layer F.SilkS) (width 0.12))
    (fp_line (start -1.33 0) (end -1.33 -1.33) (layer F.SilkS) (width 0.12))
    (fp_line (start -1.33 -1.33) (end 0 -1.33) (layer F.SilkS) (width 0.12))
    (fp_line (start -1.8 -1.8) (end -1.8 9.4) (layer F.CrtYd) (width 0.05))
    (fp_line (start -1.8 9.4) (end 1.8 9.4) (layer F.CrtYd) (width 0.05))
    (fp_line (start 1.8 9.4) (end 1.8 -1.8) (layer F.CrtYd) (width 0.05))
    (fp_line (start 1.8 -1.8) (end -1.8 -1.8) (layer F.CrtYd) (width 0.05))
    (fp_text user %R (at 0 3.81) (layer F.Fab)
      (effects (font (size 1 1) (thickness 0.15)))
    )
    (pad 1 thru_hole rect (at 0 0 90) (size 1.7 1.7) (drill 1) (layers *.Cu *.Mask)
      (net 11 "Net-(A4-Pad6)"))
    (pad 2 thru_hole oval (at 0 2.54 90) (size 1.7 1.7) (drill 1) (layers *.Cu *.Mask)
      (net 9 "Net-(A4-Pad5)"))
    (pad 3 thru_hole oval (at 0 5.08 90) (size 1.7 1.7) (drill 1) (layers *.Cu *.Mask)
      (net 7 "Net-(A4-Pad4)"))
    (pad 4 thru_hole oval (at 0 7.62 90) (size 1.7 1.7) (drill 1) (layers *.Cu *.Mask)
      (net 5 "Net-(A4-Pad3)"))
    (model ${KISYS3DMOD}/Connector_PinHeader_2.54mm.3dshapes/PinHeader_1x04_P2.54mm_Vertical.wrl
      (at (xyz 0 0 0))
      (scale (xyz 1 1 1))
      (rotate (xyz 0 0 0))
    )
  )

  (module Capacitor_SMD:C_Elec_8x5.4 (layer F.Cu) (tedit 5BC8D926) (tstamp 5EDC19A9)
    (at 210.1215 61.8871 90)
    (descr "SMD capacitor, aluminum electrolytic nonpolar, 8.0x5.4mm")
    (tags "capacitor electrolyic nonpolar")
    (path /5EEBEA76)
    (attr smd)
    (fp_text reference C1 (at 0 -5.2 90) (layer F.SilkS)
      (effects (font (size 1 1) (thickness 0.15)))
    )
    (fp_text value CP (at 0 5.2 90) (layer F.Fab)
      (effects (font (size 1 1) (thickness 0.15)))
    )
    (fp_circle (center 0 0) (end 4 0) (layer F.Fab) (width 0.1))
    (fp_line (start 4.15 -4.15) (end 4.15 4.15) (layer F.Fab) (width 0.1))
    (fp_line (start -3.15 -4.15) (end 4.15 -4.15) (layer F.Fab) (width 0.1))
    (fp_line (start -3.15 4.15) (end 4.15 4.15) (layer F.Fab) (width 0.1))
    (fp_line (start -4.15 -3.15) (end -4.15 3.15) (layer F.Fab) (width 0.1))
    (fp_line (start -4.15 -3.15) (end -3.15 -4.15) (layer F.Fab) (width 0.1))
    (fp_line (start -4.15 3.15) (end -3.15 4.15) (layer F.Fab) (width 0.1))
    (fp_line (start 4.26 4.26) (end 4.26 1.06) (layer F.SilkS) (width 0.12))
    (fp_line (start 4.26 -4.26) (end 4.26 -1.06) (layer F.SilkS) (width 0.12))
    (fp_line (start -3.195563 -4.26) (end 4.26 -4.26) (layer F.SilkS) (width 0.12))
    (fp_line (start -3.195563 4.26) (end 4.26 4.26) (layer F.SilkS) (width 0.12))
    (fp_line (start -4.26 3.195563) (end -4.26 1.06) (layer F.SilkS) (width 0.12))
    (fp_line (start -4.26 -3.195563) (end -4.26 -1.06) (layer F.SilkS) (width 0.12))
    (fp_line (start -4.26 -3.195563) (end -3.195563 -4.26) (layer F.SilkS) (width 0.12))
    (fp_line (start -4.26 3.195563) (end -3.195563 4.26) (layer F.SilkS) (width 0.12))
    (fp_line (start 4.4 -4.4) (end 4.4 -1.05) (layer F.CrtYd) (width 0.05))
    (fp_line (start 4.4 -1.05) (end 5.3 -1.05) (layer F.CrtYd) (width 0.05))
    (fp_line (start 5.3 -1.05) (end 5.3 1.05) (layer F.CrtYd) (width 0.05))
    (fp_line (start 5.3 1.05) (end 4.4 1.05) (layer F.CrtYd) (width 0.05))
    (fp_line (start 4.4 1.05) (end 4.4 4.4) (layer F.CrtYd) (width 0.05))
    (fp_line (start -3.25 4.4) (end 4.4 4.4) (layer F.CrtYd) (width 0.05))
    (fp_line (start -3.25 -4.4) (end 4.4 -4.4) (layer F.CrtYd) (width 0.05))
    (fp_line (start -4.4 3.25) (end -3.25 4.4) (layer F.CrtYd) (width 0.05))
    (fp_line (start -4.4 -3.25) (end -3.25 -4.4) (layer F.CrtYd) (width 0.05))
    (fp_line (start -4.4 -3.25) (end -4.4 -1.05) (layer F.CrtYd) (width 0.05))
    (fp_line (start -4.4 1.05) (end -4.4 3.25) (layer F.CrtYd) (width 0.05))
    (fp_line (start -4.4 -1.05) (end -5.3 -1.05) (layer F.CrtYd) (width 0.05))
    (fp_line (start -5.3 -1.05) (end -5.3 1.05) (layer F.CrtYd) (width 0.05))
    (fp_line (start -5.3 1.05) (end -4.4 1.05) (layer F.CrtYd) (width 0.05))
    (fp_text user %R (at 0 0 90) (layer F.Fab)
      (effects (font (size 1 1) (thickness 0.15)))
    )
    (pad 1 smd roundrect (at -3.0875 0 90) (size 3.925 1.6) (layers F.Cu F.Paste F.Mask) (roundrect_rratio 0.15625)
      (net 13 VMOT))
    (pad 2 smd roundrect (at 3.0875 0 90) (size 3.925 1.6) (layers F.Cu F.Paste F.Mask) (roundrect_rratio 0.15625)
      (net 1 GND))
    (model ${KISYS3DMOD}/Capacitor_SMD.3dshapes/C_Elec_8x5.4.wrl
      (at (xyz 0 0 0))
      (scale (xyz 1 1 1))
      (rotate (xyz 0 0 0))
    )
  )

  (module Capacitor_SMD:C_Elec_8x5.4 (layer F.Cu) (tedit 5BC8D926) (tstamp 5EDC19CD)
    (at 210.8073 85.9028 90)
    (descr "SMD capacitor, aluminum electrolytic nonpolar, 8.0x5.4mm")
    (tags "capacitor electrolyic nonpolar")
    (path /5EEDF432)
    (attr smd)
    (fp_text reference C2 (at 0 -5.2 90) (layer F.SilkS)
      (effects (font (size 1 1) (thickness 0.15)))
    )
    (fp_text value CP (at 0 5.2 90) (layer F.Fab)
      (effects (font (size 1 1) (thickness 0.15)))
    )
    (fp_text user %R (at 0 0 90) (layer F.Fab)
      (effects (font (size 1 1) (thickness 0.15)))
    )
    (fp_line (start -5.3 1.05) (end -4.4 1.05) (layer F.CrtYd) (width 0.05))
    (fp_line (start -5.3 -1.05) (end -5.3 1.05) (layer F.CrtYd) (width 0.05))
    (fp_line (start -4.4 -1.05) (end -5.3 -1.05) (layer F.CrtYd) (width 0.05))
    (fp_line (start -4.4 1.05) (end -4.4 3.25) (layer F.CrtYd) (width 0.05))
    (fp_line (start -4.4 -3.25) (end -4.4 -1.05) (layer F.CrtYd) (width 0.05))
    (fp_line (start -4.4 -3.25) (end -3.25 -4.4) (layer F.CrtYd) (width 0.05))
    (fp_line (start -4.4 3.25) (end -3.25 4.4) (layer F.CrtYd) (width 0.05))
    (fp_line (start -3.25 -4.4) (end 4.4 -4.4) (layer F.CrtYd) (width 0.05))
    (fp_line (start -3.25 4.4) (end 4.4 4.4) (layer F.CrtYd) (width 0.05))
    (fp_line (start 4.4 1.05) (end 4.4 4.4) (layer F.CrtYd) (width 0.05))
    (fp_line (start 5.3 1.05) (end 4.4 1.05) (layer F.CrtYd) (width 0.05))
    (fp_line (start 5.3 -1.05) (end 5.3 1.05) (layer F.CrtYd) (width 0.05))
    (fp_line (start 4.4 -1.05) (end 5.3 -1.05) (layer F.CrtYd) (width 0.05))
    (fp_line (start 4.4 -4.4) (end 4.4 -1.05) (layer F.CrtYd) (width 0.05))
    (fp_line (start -4.26 3.195563) (end -3.195563 4.26) (layer F.SilkS) (width 0.12))
    (fp_line (start -4.26 -3.195563) (end -3.195563 -4.26) (layer F.SilkS) (width 0.12))
    (fp_line (start -4.26 -3.195563) (end -4.26 -1.06) (layer F.SilkS) (width 0.12))
    (fp_line (start -4.26 3.195563) (end -4.26 1.06) (layer F.SilkS) (width 0.12))
    (fp_line (start -3.195563 4.26) (end 4.26 4.26) (layer F.SilkS) (width 0.12))
    (fp_line (start -3.195563 -4.26) (end 4.26 -4.26) (layer F.SilkS) (width 0.12))
    (fp_line (start 4.26 -4.26) (end 4.26 -1.06) (layer F.SilkS) (width 0.12))
    (fp_line (start 4.26 4.26) (end 4.26 1.06) (layer F.SilkS) (width 0.12))
    (fp_line (start -4.15 3.15) (end -3.15 4.15) (layer F.Fab) (width 0.1))
    (fp_line (start -4.15 -3.15) (end -3.15 -4.15) (layer F.Fab) (width 0.1))
    (fp_line (start -4.15 -3.15) (end -4.15 3.15) (layer F.Fab) (width 0.1))
    (fp_line (start -3.15 4.15) (end 4.15 4.15) (layer F.Fab) (width 0.1))
    (fp_line (start -3.15 -4.15) (end 4.15 -4.15) (layer F.Fab) (width 0.1))
    (fp_line (start 4.15 -4.15) (end 4.15 4.15) (layer F.Fab) (width 0.1))
    (fp_circle (center 0 0) (end 4 0) (layer F.Fab) (width 0.1))
    (pad 2 smd roundrect (at 3.0875 0 90) (size 3.925 1.6) (layers F.Cu F.Paste F.Mask) (roundrect_rratio 0.15625)
      (net 1 GND))
    (pad 1 smd roundrect (at -3.0875 0 90) (size 3.925 1.6) (layers F.Cu F.Paste F.Mask) (roundrect_rratio 0.15625)
      (net 13 VMOT))
    (model ${KISYS3DMOD}/Capacitor_SMD.3dshapes/C_Elec_8x5.4.wrl
      (at (xyz 0 0 0))
      (scale (xyz 1 1 1))
      (rotate (xyz 0 0 0))
    )
  )

  (module Connector_PinHeader_2.54mm:PinHeader_1x04_P2.54mm_Vertical (layer F.Cu) (tedit 59FED5CC) (tstamp 5EDC24A5)
    (at 186.69 76.1365 90)
    (descr "Through hole straight pin header, 1x04, 2.54mm pitch, single row")
    (tags "Through hole pin header THT 1x04 2.54mm single row")
    (path /5EEDF428)
    (fp_text reference C_AXIS5 (at 0 -2.33 90) (layer F.SilkS)
      (effects (font (size 1 1) (thickness 0.15)))
    )
    (fp_text value Conn_01x04_Male (at 0 9.95 90) (layer F.Fab)
      (effects (font (size 1 1) (thickness 0.15)))
    )
    (fp_line (start -0.635 -1.27) (end 1.27 -1.27) (layer F.Fab) (width 0.1))
    (fp_line (start 1.27 -1.27) (end 1.27 8.89) (layer F.Fab) (width 0.1))
    (fp_line (start 1.27 8.89) (end -1.27 8.89) (layer F.Fab) (width 0.1))
    (fp_line (start -1.27 8.89) (end -1.27 -0.635) (layer F.Fab) (width 0.1))
    (fp_line (start -1.27 -0.635) (end -0.635 -1.27) (layer F.Fab) (width 0.1))
    (fp_line (start -1.33 8.95) (end 1.33 8.95) (layer F.SilkS) (width 0.12))
    (fp_line (start -1.33 1.27) (end -1.33 8.95) (layer F.SilkS) (width 0.12))
    (fp_line (start 1.33 1.27) (end 1.33 8.95) (layer F.SilkS) (width 0.12))
    (fp_line (start -1.33 1.27) (end 1.33 1.27) (layer F.SilkS) (width 0.12))
    (fp_line (start -1.33 0) (end -1.33 -1.33) (layer F.SilkS) (width 0.12))
    (fp_line (start -1.33 -1.33) (end 0 -1.33) (layer F.SilkS) (width 0.12))
    (fp_line (start -1.8 -1.8) (end -1.8 9.4) (layer F.CrtYd) (width 0.05))
    (fp_line (start -1.8 9.4) (end 1.8 9.4) (layer F.CrtYd) (width 0.05))
    (fp_line (start 1.8 9.4) (end 1.8 -1.8) (layer F.CrtYd) (width 0.05))
    (fp_line (start 1.8 -1.8) (end -1.8 -1.8) (layer F.CrtYd) (width 0.05))
    (fp_text user %R (at 0 3.81) (layer F.Fab)
      (effects (font (size 1 1) (thickness 0.15)))
    )
    (pad 1 thru_hole rect (at 0 0 90) (size 1.7 1.7) (drill 1) (layers *.Cu *.Mask)
      (net 18 "Net-(A5-Pad6)"))
    (pad 2 thru_hole oval (at 0 2.54 90) (size 1.7 1.7) (drill 1) (layers *.Cu *.Mask)
      (net 19 "Net-(A5-Pad5)"))
    (pad 3 thru_hole oval (at 0 5.08 90) (size 1.7 1.7) (drill 1) (layers *.Cu *.Mask)
      (net 21 "Net-(A5-Pad4)"))
    (pad 4 thru_hole oval (at 0 7.62 90) (size 1.7 1.7) (drill 1) (layers *.Cu *.Mask)
      (net 23 "Net-(A5-Pad3)"))
    (model ${KISYS3DMOD}/Connector_PinHeader_2.54mm.3dshapes/PinHeader_1x04_P2.54mm_Vertical.wrl
      (at (xyz 0 0 0))
      (scale (xyz 1 1 1))
      (rotate (xyz 0 0 0))
    )
  )

  (module Connector_BarrelJack:BarrelJack_Wuerth_6941xx301002 (layer F.Cu) (tedit 5B191DE1) (tstamp 5EDC1A02)
    (at 185.1787 66.6496 270)
    (descr "Wuerth electronics barrel jack connector (5.5mm outher diameter, inner diameter 2.05mm or 2.55mm depending on exact order number), See: http://katalog.we-online.de/em/datasheet/6941xx301002.pdf")
    (tags "connector barrel jack")
    (path /5EECAFDA)
    (fp_text reference J2 (at 0 -2.5 90) (layer F.SilkS)
      (effects (font (size 1 1) (thickness 0.15)))
    )
    (fp_text value Barrel_Jack_Switch (at 0 15.5 90) (layer F.Fab)
      (effects (font (size 1 1) (thickness 0.15)))
    )
    (fp_line (start 5 14.1) (end 5 5.5) (layer F.CrtYd) (width 0.05))
    (fp_line (start 4.6 5.2) (end 4.6 13.7) (layer F.SilkS) (width 0.12))
    (fp_line (start -4.5 0.1) (end -3.5 -0.9) (layer F.Fab) (width 0.1))
    (fp_line (start 4.5 -0.9) (end -3.5 -0.9) (layer F.Fab) (width 0.1))
    (fp_line (start 4.5 -0.9) (end 4.5 13.6) (layer F.Fab) (width 0.1))
    (fp_line (start 4.5 13.6) (end -4.5 13.6) (layer F.Fab) (width 0.1))
    (fp_line (start -4.5 13.6) (end -4.5 0.1) (layer F.Fab) (width 0.1))
    (fp_text user %R (at 0 7.5 270) (layer F.Fab)
      (effects (font (size 1 1) (thickness 0.15)))
    )
    (fp_line (start 4.6 13.7) (end -4.6 13.7) (layer F.SilkS) (width 0.12))
    (fp_line (start -4.6 13.7) (end -4.6 -1) (layer F.SilkS) (width 0.12))
    (fp_line (start 2.5 -1) (end 4.6 -1) (layer F.SilkS) (width 0.12))
    (fp_line (start 4.6 -1) (end 4.6 0.8) (layer F.SilkS) (width 0.12))
    (fp_line (start -3.2 -1.3) (end -4.9 -1.3) (layer F.SilkS) (width 0.12))
    (fp_line (start -4.9 -1.3) (end -4.9 0.3) (layer F.SilkS) (width 0.12))
    (fp_line (start 5 -1.4) (end -5 -1.4) (layer F.CrtYd) (width 0.05))
    (fp_line (start -5 -1.4) (end -5 14.1) (layer F.CrtYd) (width 0.05))
    (fp_line (start -5 14.1) (end 5 14.1) (layer F.CrtYd) (width 0.05))
    (fp_line (start 5 0.5) (end 5 -1.4) (layer F.CrtYd) (width 0.05))
    (fp_line (start 6.2 0.5) (end 6.2 5.5) (layer F.CrtYd) (width 0.05))
    (fp_line (start 6.2 5.5) (end 5 5.5) (layer F.CrtYd) (width 0.05))
    (fp_line (start 6.2 0.5) (end 5 0.5) (layer F.CrtYd) (width 0.05))
    (fp_line (start -4.6 -1) (end -2.5 -1) (layer F.SilkS) (width 0.12))
    (pad 3 thru_hole oval (at 4.8 3) (size 4 1.8) (drill oval 3 0.8) (layers *.Cu *.Mask)
      (net 1 GND))
    (pad 2 thru_hole oval (at 0 5.8 270) (size 4 1.8) (drill oval 3 0.8) (layers *.Cu *.Mask)
      (net 1 GND))
    (pad 1 thru_hole rect (at 0 0 270) (size 4.4 1.8) (drill oval 3.4 0.8) (layers *.Cu *.Mask)
      (net 13 VMOT))
    (model ${KISYS3DMOD}/Connector_BarrelJack.3dshapes/BarrelJack_Wuerth_6941xx301002.wrl
      (at (xyz 0 0 0))
      (scale (xyz 1 1 1))
      (rotate (xyz 0 0 0))
    )
  )

  (module fab:fab-2X03SMD (layer F.Cu) (tedit 200000) (tstamp 5EDC1A0C)
    (at 225.0694 65.1002 180)
    (path /5EEC19C1)
    (attr smd)
    (fp_text reference JP4 (at -0.635 -4.445) (layer F.SilkS)
      (effects (font (size 1.27 1.27) (thickness 0.1016)))
    )
    (fp_text value Conn_02x03 (at 0 4.445) (layer F.SilkS)
      (effects (font (size 1.27 1.27) (thickness 0.1016)))
    )
    (pad 1 smd rect (at -2.54 -2.54 180) (size 2.54 1.27) (layers F.Cu F.Paste F.Mask)
      (net 3 3V3))
    (pad 2 smd rect (at 2.91846 -2.54 180) (size 2.54 1.27) (layers F.Cu F.Paste F.Mask)
      (net 4 "Net-(A4-Pad10)"))
    (pad 3 smd rect (at -2.54 0 180) (size 2.54 1.27) (layers F.Cu F.Paste F.Mask)
      (net 3 3V3))
    (pad 4 smd rect (at 2.91846 0 180) (size 2.54 1.27) (layers F.Cu F.Paste F.Mask)
      (net 6 "Net-(A4-Pad11)"))
    (pad 5 smd rect (at -2.54 2.54 180) (size 2.54 1.27) (layers F.Cu F.Paste F.Mask)
      (net 3 3V3))
    (pad 6 smd rect (at 2.91846 2.54 180) (size 2.54 1.27) (layers F.Cu F.Paste F.Mask)
      (net 8 "Net-(A4-Pad12)"))
  )

  (module fab:fab-2X03SMD (layer F.Cu) (tedit 200000) (tstamp 5EDC1A16)
    (at 225.933 89.535 180)
    (path /5EEDF442)
    (attr smd)
    (fp_text reference JP5 (at -0.635 -4.445) (layer F.SilkS)
      (effects (font (size 1.27 1.27) (thickness 0.1016)))
    )
    (fp_text value Conn_02x03 (at 0 4.445) (layer F.SilkS)
      (effects (font (size 1.27 1.27) (thickness 0.1016)))
    )
    (pad 6 smd rect (at 2.91846 2.54 180) (size 2.54 1.27) (layers F.Cu F.Paste F.Mask)
      (net 20 "Net-(A5-Pad12)"))
    (pad 5 smd rect (at -2.54 2.54 180) (size 2.54 1.27) (layers F.Cu F.Paste F.Mask)
      (net 3 3V3))
    (pad 4 smd rect (at 2.91846 0 180) (size 2.54 1.27) (layers F.Cu F.Paste F.Mask)
      (net 22 "Net-(A5-Pad11)"))
    (pad 3 smd rect (at -2.54 0 180) (size 2.54 1.27) (layers F.Cu F.Paste F.Mask)
      (net 3 3V3))
    (pad 2 smd rect (at 2.91846 -2.54 180) (size 2.54 1.27) (layers F.Cu F.Paste F.Mask)
      (net 24 "Net-(A5-Pad10)"))
    (pad 1 smd rect (at -2.54 -2.54 180) (size 2.54 1.27) (layers F.Cu F.Paste F.Mask)
      (net 3 3V3))
  )

  (module Connector_PinHeader_2.54mm:PinHeader_1x04_P2.54mm_Vertical (layer F.Cu) (tedit 59FED5CC) (tstamp 5EDC1A2E)
    (at 226.441 51.6255 90)
    (descr "Through hole straight pin header, 1x04, 2.54mm pitch, single row")
    (tags "Through hole pin header THT 1x04 2.54mm single row")
    (path /5EECD521)
    (fp_text reference PinINPUT1 (at 0 -2.33 90) (layer F.SilkS)
      (effects (font (size 1 1) (thickness 0.15)))
    )
    (fp_text value Conn_01x04_Male (at 0 9.95 90) (layer F.Fab)
      (effects (font (size 1 1) (thickness 0.15)))
    )
    (fp_text user %R (at 0 3.81) (layer F.Fab)
      (effects (font (size 1 1) (thickness 0.15)))
    )
    (fp_line (start 1.8 -1.8) (end -1.8 -1.8) (layer F.CrtYd) (width 0.05))
    (fp_line (start 1.8 9.4) (end 1.8 -1.8) (layer F.CrtYd) (width 0.05))
    (fp_line (start -1.8 9.4) (end 1.8 9.4) (layer F.CrtYd) (width 0.05))
    (fp_line (start -1.8 -1.8) (end -1.8 9.4) (layer F.CrtYd) (width 0.05))
    (fp_line (start -1.33 -1.33) (end 0 -1.33) (layer F.SilkS) (width 0.12))
    (fp_line (start -1.33 0) (end -1.33 -1.33) (layer F.SilkS) (width 0.12))
    (fp_line (start -1.33 1.27) (end 1.33 1.27) (layer F.SilkS) (width 0.12))
    (fp_line (start 1.33 1.27) (end 1.33 8.95) (layer F.SilkS) (width 0.12))
    (fp_line (start -1.33 1.27) (end -1.33 8.95) (layer F.SilkS) (width 0.12))
    (fp_line (start -1.33 8.95) (end 1.33 8.95) (layer F.SilkS) (width 0.12))
    (fp_line (start -1.27 -0.635) (end -0.635 -1.27) (layer F.Fab) (width 0.1))
    (fp_line (start -1.27 8.89) (end -1.27 -0.635) (layer F.Fab) (width 0.1))
    (fp_line (start 1.27 8.89) (end -1.27 8.89) (layer F.Fab) (width 0.1))
    (fp_line (start 1.27 -1.27) (end 1.27 8.89) (layer F.Fab) (width 0.1))
    (fp_line (start -0.635 -1.27) (end 1.27 -1.27) (layer F.Fab) (width 0.1))
    (pad 4 thru_hole oval (at 0 7.62 90) (size 1.7 1.7) (drill 1) (layers *.Cu *.Mask)
      (net 3 3V3))
    (pad 3 thru_hole oval (at 0 5.08 90) (size 1.7 1.7) (drill 1) (layers *.Cu *.Mask)
      (net 2 Step_Enable))
    (pad 2 thru_hole oval (at 0 2.54 90) (size 1.7 1.7) (drill 1) (layers *.Cu *.Mask)
      (net 12 A_Step))
    (pad 1 thru_hole rect (at 0 0 90) (size 1.7 1.7) (drill 1) (layers *.Cu *.Mask)
      (net 14 A_Dir))
    (model ${KISYS3DMOD}/Connector_PinHeader_2.54mm.3dshapes/PinHeader_1x04_P2.54mm_Vertical.wrl
      (at (xyz 0 0 0))
      (scale (xyz 1 1 1))
      (rotate (xyz 0 0 0))
    )
  )

  (module Connector_PinHeader_2.54mm:PinHeader_1x04_P2.54mm_Vertical (layer F.Cu) (tedit 59FED5CC) (tstamp 5EDC1A46)
    (at 226.5299 75.9841 90)
    (descr "Through hole straight pin header, 1x04, 2.54mm pitch, single row")
    (tags "Through hole pin header THT 1x04 2.54mm single row")
    (path /5EEE91BD)
    (fp_text reference PinINPUT2 (at 0 -2.33 90) (layer F.SilkS)
      (effects (font (size 1 1) (thickness 0.15)))
    )
    (fp_text value Conn_01x04_Male (at 0 9.95 90) (layer F.Fab)
      (effects (font (size 1 1) (thickness 0.15)))
    )
    (fp_text user %R (at 0 3.81) (layer F.Fab)
      (effects (font (size 1 1) (thickness 0.15)))
    )
    (fp_line (start 1.8 -1.8) (end -1.8 -1.8) (layer F.CrtYd) (width 0.05))
    (fp_line (start 1.8 9.4) (end 1.8 -1.8) (layer F.CrtYd) (width 0.05))
    (fp_line (start -1.8 9.4) (end 1.8 9.4) (layer F.CrtYd) (width 0.05))
    (fp_line (start -1.8 -1.8) (end -1.8 9.4) (layer F.CrtYd) (width 0.05))
    (fp_line (start -1.33 -1.33) (end 0 -1.33) (layer F.SilkS) (width 0.12))
    (fp_line (start -1.33 0) (end -1.33 -1.33) (layer F.SilkS) (width 0.12))
    (fp_line (start -1.33 1.27) (end 1.33 1.27) (layer F.SilkS) (width 0.12))
    (fp_line (start 1.33 1.27) (end 1.33 8.95) (layer F.SilkS) (width 0.12))
    (fp_line (start -1.33 1.27) (end -1.33 8.95) (layer F.SilkS) (width 0.12))
    (fp_line (start -1.33 8.95) (end 1.33 8.95) (layer F.SilkS) (width 0.12))
    (fp_line (start -1.27 -0.635) (end -0.635 -1.27) (layer F.Fab) (width 0.1))
    (fp_line (start -1.27 8.89) (end -1.27 -0.635) (layer F.Fab) (width 0.1))
    (fp_line (start 1.27 8.89) (end -1.27 8.89) (layer F.Fab) (width 0.1))
    (fp_line (start 1.27 -1.27) (end 1.27 8.89) (layer F.Fab) (width 0.1))
    (fp_line (start -0.635 -1.27) (end 1.27 -1.27) (layer F.Fab) (width 0.1))
    (pad 4 thru_hole oval (at 0 7.62 90) (size 1.7 1.7) (drill 1) (layers *.Cu *.Mask)
      (net 25 Spindle_Ena))
    (pad 3 thru_hole oval (at 0 5.08 90) (size 1.7 1.7) (drill 1) (layers *.Cu *.Mask)
      (net 2 Step_Enable))
    (pad 2 thru_hole oval (at 0 2.54 90) (size 1.7 1.7) (drill 1) (layers *.Cu *.Mask)
      (net 16 C_Step))
    (pad 1 thru_hole rect (at 0 0 90) (size 1.7 1.7) (drill 1) (layers *.Cu *.Mask)
      (net 15 C_Dir))
    (model ${KISYS3DMOD}/Connector_PinHeader_2.54mm.3dshapes/PinHeader_1x04_P2.54mm_Vertical.wrl
      (at (xyz 0 0 0))
      (scale (xyz 1 1 1))
      (rotate (xyz 0 0 0))
    )
  )

  (module fab-AYZ0102AGRLC (layer F.Cu) (tedit 200000) (tstamp 5EDC31D7)
    (at 172.3644 53.0225 90)
    (path /5EEBFAF3)
    (attr smd)
    (fp_text reference Spindle_Enable1 (at 0.381 -3.429 90) (layer F.SilkS)
      (effects (font (size 1.27 1.27) (thickness 0.1016)))
    )
    (fp_text value SLIDE-SWITCH (at 0.508 3.937 90) (layer F.SilkS)
      (effects (font (size 1.27 1.27) (thickness 0.1016)))
    )
    (fp_line (start -3.59918 1.4986) (end 3.59918 1.4986) (layer B.SilkS) (width 0.127))
    (fp_line (start 3.59918 1.4986) (end 3.59918 -1.4986) (layer B.SilkS) (width 0.127))
    (fp_line (start 3.59918 -1.4986) (end 1.4986 -1.4986) (layer B.SilkS) (width 0.127))
    (fp_line (start 1.4986 -1.4986) (end -1.4986 -1.4986) (layer B.SilkS) (width 0.127))
    (fp_line (start -1.4986 -1.4986) (end -3.59918 -1.4986) (layer B.SilkS) (width 0.127))
    (fp_line (start -3.59918 -1.4986) (end -3.59918 1.4986) (layer B.SilkS) (width 0.127))
    (fp_line (start 0 -1.59766) (end 0 -2.49936) (layer B.SilkS) (width 0.127))
    (fp_line (start 0 -2.49936) (end 1.4986 -2.49936) (layer B.SilkS) (width 0.127))
    (fp_line (start 1.4986 -2.49936) (end 1.4986 -1.4986) (layer B.SilkS) (width 0.127))
    (fp_circle (center -1.4986 -0.39878) (end -1.70942 -0.6096) (layer F.SilkS) (width 0.127))
    (fp_line (start -1.92278 -0.39878) (end -1.07442 -0.39878) (layer F.SilkS) (width 0.127))
    (fp_line (start -1.4986 0.02286) (end -1.4986 -0.82296) (layer F.SilkS) (width 0.127))
    (fp_circle (center 1.4986 -0.39878) (end 1.70942 -0.6096) (layer F.SilkS) (width 0.127))
    (fp_line (start 1.07442 -0.39878) (end 1.92278 -0.39878) (layer F.SilkS) (width 0.127))
    (fp_line (start 1.4986 0.02286) (end 1.4986 -0.82296) (layer F.SilkS) (width 0.127))
    (pad 1 smd rect (at 2.49936 2.2987 90) (size 0.99822 1.19888) (layers F.Cu F.Paste F.Mask)
      (net 1 GND))
    (pad 2 smd rect (at 0 2.2987 90) (size 0.99822 1.19888) (layers F.Cu F.Paste F.Mask)
      (net 27 "Net-(R0-Pad1)"))
    (pad 3 smd rect (at -2.49936 2.2987 90) (size 0.99822 1.19888) (layers F.Cu F.Paste F.Mask)
      (net 26 "Net-(R1-Pad2)"))
  )

  (module fab-R1206FAB (layer F.Cu) (tedit 200000) (tstamp 5EDC2FFF)
    (at 179.5653 76.9874 270)
    (path /5EF15678)
    (attr smd)
    (fp_text reference R0 (at 0.762 -1.778 90) (layer F.SilkS)
      (effects (font (size 1.016 1.016) (thickness 0.1524)))
    )
    (fp_text value 0Ω (at 1.27 1.778 90) (layer F.SilkS)
      (effects (font (size 1.016 1.016) (thickness 0.1524)))
    )
    (fp_line (start -2.032 -1.016) (end 2.032 -1.016) (layer B.SilkS) (width 0.127))
    (fp_line (start 2.032 -1.016) (end 2.032 1.016) (layer B.SilkS) (width 0.127))
    (fp_line (start 2.032 1.016) (end -2.032 1.016) (layer B.SilkS) (width 0.127))
    (fp_line (start -2.032 1.016) (end -2.032 -1.016) (layer B.SilkS) (width 0.127))
    (pad 1 smd rect (at -1.651 0 270) (size 1.27 1.905) (layers F.Cu F.Paste F.Mask)
      (net 27 "Net-(R0-Pad1)"))
    (pad 2 smd rect (at 1.651 0 270) (size 1.27 1.905) (layers F.Cu F.Paste F.Mask)
      (net 25 Spindle_Ena))
  )

  (gr_line (start 188.603187 98.912113) (end 169.870687 79.798613) (layer Eco2.User) (width 0.15) (tstamp 5EDC32BD))
  (gr_arc (start 189.0522 98.4631) (end 189.0522 99.0981) (angle 45) (layer Eco2.User) (width 0.15) (tstamp 5EDC32B3))
  (gr_arc (start 170.3197 79.3496) (end 169.6847 79.3496) (angle -45) (layer Eco2.User) (width 0.15))
  (gr_line (start 238.7346 48.4378) (end 170.2308 48.4378) (layer Eco2.User) (width 0.15))
  (gr_arc (start 238.7346 48.9839) (end 239.2807 48.9839) (angle -90) (layer Eco2.User) (width 0.15) (tstamp 5EDC3285))
  (gr_line (start 239.280106 86.3854) (end 239.280106 48.9839) (layer Eco2.User) (width 0.15))
  (gr_line (start 227.40112 98.65614) (end 239.001299 87.058499) (layer Eco2.User) (width 0.15) (tstamp 5EDC3284))
  (gr_arc (start 238.3282 86.3854) (end 239.001299 87.058499) (angle -45) (layer Eco2.User) (width 0.15))
  (gr_arc (start 226.5172 97.9932) (end 226.5172 99.0981) (angle -53.13010235) (layer Eco2.User) (width 0.15))
  (gr_line (start 189.0649 99.0981) (end 226.5172 99.0981) (layer Eco2.User) (width 0.15))
  (gr_line (start 169.6847 57.4548) (end 169.6847 79.3369) (layer Eco2.User) (width 0.15))
  (gr_line (start 170.8531 50.1015) (end 170.8531 56.2991) (layer Eco2.User) (width 0.15))
  (gr_arc (start 170.2562 56.3118) (end 170.8531 56.3118) (angle 90) (layer Eco2.User) (width 0.15) (tstamp 5EDC324B))
  (gr_arc (start 170.2308 57.4548) (end 169.6847 57.4548) (angle 90) (layer Eco2.User) (width 0.15) (tstamp 5EDC324A))
  (gr_arc (start 170.2308 48.9839) (end 170.2308 48.4378) (angle -90) (layer Eco2.User) (width 0.15) (tstamp 5EDC3291))
  (gr_arc (start 170.2562 50.1142) (end 170.8531 50.1142) (angle -90) (layer Eco2.User) (width 0.15) (tstamp 5EDC3294))
  (gr_arc (start 170.2308 48.9712) (end 169.6847 48.9712) (angle -90) (layer Eco2.User) (width 0.15) (tstamp 5EDC3297))
  (gr_circle (center 171.9707 54.5211) (end 172.391337 54.5211) (layer Eco2.User) (width 0.1))
  (gr_circle (center 171.9707 51.5239) (end 172.376504 51.5239) (layer Eco2.User) (width 0.1))

  (segment (start 210.1215 57.2423) (end 210.1215 58.7996) (width 1) (layer F.Cu) (net 1))
  (segment (start 205.2794 52.4002) (end 210.1215 57.2423) (width 1) (layer F.Cu) (net 1))
  (segment (start 203.4794 52.4002) (end 205.2794 52.4002) (width 1) (layer F.Cu) (net 1))
  (segment (start 210.1215 60.9981) (end 210.1215 58.7996) (width 1) (layer F.Cu) (net 1))
  (segment (start 203.4794 67.6402) (end 210.1215 60.9981) (width 1) (layer F.Cu) (net 1))
  (segment (start 182.1787 69.4496) (end 179.3787 66.6496) (width 1) (layer F.Cu) (net 1))
  (segment (start 182.1787 71.4496) (end 182.1787 69.4496) (width 1) (layer F.Cu) (net 1))
  (segment (start 179.3787 63.6496) (end 179.478701 63.549599) (width 1) (layer F.Cu) (net 1))
  (segment (start 179.3787 66.6496) (end 179.3787 63.6496) (width 1) (layer F.Cu) (net 1))
  (segment (start 210.0799 82.8153) (end 204.196801 76.932201) (width 1) (layer F.Cu) (net 1))
  (segment (start 210.8073 82.8153) (end 210.0799 82.8153) (width 1) (layer F.Cu) (net 1))
  (segment (start 186.917399 63.549599) (end 191.0207 67.6529) (width 1) (layer F.Cu) (net 1))
  (segment (start 191.0207 67.6529) (end 198.819552 67.6529) (width 1) (layer F.Cu) (net 1))
  (segment (start 179.478701 63.549599) (end 186.917399 63.549599) (width 1) (layer F.Cu) (net 1))
  (segment (start 198.819552 67.6529) (end 198.832252 67.6402) (width 1) (layer F.Cu) (net 1))
  (segment (start 202.34803 67.6402) (end 203.4794 67.6402) (width 1) (layer F.Cu) (net 1))
  (segment (start 198.832252 67.6402) (end 202.34803 67.6402) (width 1) (layer F.Cu) (net 1))
  (segment (start 204.9968 91.372202) (end 204.196801 92.172201) (width 1) (layer F.Cu) (net 1))
  (segment (start 209.10729 87.261712) (end 204.9968 91.372202) (width 1) (layer F.Cu) (net 1))
  (segment (start 209.10729 84.51531) (end 209.10729 87.261712) (width 1) (layer F.Cu) (net 1))
  (segment (start 210.8073 82.8153) (end 209.10729 84.51531) (width 1) (layer F.Cu) (net 1))
  (segment (start 200.59401 71.52941) (end 185.25851 71.52941) (width 1) (layer F.Cu) (net 1))
  (segment (start 185.1787 71.4496) (end 182.1787 71.4496) (width 1) (layer F.Cu) (net 1))
  (segment (start 185.25851 71.52941) (end 185.1787 71.4496) (width 1) (layer F.Cu) (net 1))
  (segment (start 204.196801 75.132201) (end 200.59401 71.52941) (width 1) (layer F.Cu) (net 1))
  (segment (start 204.196801 76.932201) (end 204.196801 75.132201) (width 1) (layer F.Cu) (net 1))
  (segment (start 180.922501 56.237299) (end 179.4383 57.7215) (width 1) (layer F.Cu) (net 1))
  (segment (start 174.76343 50.52314) (end 176.540589 52.300299) (width 1) (layer F.Cu) (net 1))
  (segment (start 179.4383 63.509198) (end 179.478701 63.549599) (width 1) (layer F.Cu) (net 1))
  (segment (start 180.922501 52.480299) (end 180.922501 56.237299) (width 1) (layer F.Cu) (net 1))
  (segment (start 174.6631 50.52314) (end 174.76343 50.52314) (width 1) (layer F.Cu) (net 1))
  (segment (start 176.540589 52.300299) (end 180.742501 52.300299) (width 1) (layer F.Cu) (net 1))
  (segment (start 179.4383 57.7215) (end 179.4383 63.509198) (width 1) (layer F.Cu) (net 1))
  (segment (start 180.742501 52.300299) (end 180.922501 52.480299) (width 1) (layer F.Cu) (net 1))
  (segment (start 217.31077 70.1802) (end 216.1794 70.1802) (width 0.4) (layer F.Cu) (net 2))
  (segment (start 231.521 52.827581) (end 224.7138 59.634781) (width 0.4) (layer F.Cu) (net 2))
  (segment (start 231.521 51.6255) (end 231.521 52.827581) (width 0.4) (layer F.Cu) (net 2))
  (segment (start 224.7138 59.634781) (end 224.7138 68.062342) (width 0.4) (layer F.Cu) (net 2))
  (segment (start 224.7138 68.062342) (end 222.595942 70.1802) (width 0.4) (layer F.Cu) (net 2))
  (segment (start 218.028171 94.712201) (end 216.896801 94.712201) (width 0.4) (layer F.Cu) (net 2))
  (segment (start 223.362341 94.712201) (end 218.028171 94.712201) (width 0.4) (layer F.Cu) (net 2))
  (segment (start 224.884541 93.190001) (end 223.362341 94.712201) (width 0.4) (layer F.Cu) (net 2))
  (segment (start 224.884541 83.91154) (end 224.884541 93.190001) (width 0.4) (layer F.Cu) (net 2))
  (segment (start 231.6099 77.186181) (end 224.884541 83.91154) (width 0.4) (layer F.Cu) (net 2))
  (segment (start 231.6099 75.9841) (end 231.6099 77.186181) (width 0.4) (layer F.Cu) (net 2))
  (segment (start 222.595942 70.1802) (end 217.31077 70.1802) (width 0.4) (layer F.Cu) (net 2))
  (segment (start 225.008942 72.5932) (end 222.595942 70.1802) (width 0.4) (layer F.Cu) (net 2))
  (segment (start 231.6099 75.9841) (end 228.219 72.5932) (width 0.4) (layer F.Cu) (net 2))
  (segment (start 228.219 72.5932) (end 225.008942 72.5932) (width 0.4) (layer F.Cu) (net 2))
  (segment (start 233.211001 50.775501) (end 234.061 51.6255) (width 1) (layer F.Cu) (net 3))
  (segment (start 232.310999 49.875499) (end 233.211001 50.775501) (width 1) (layer F.Cu) (net 3))
  (segment (start 201.779399 50.880199) (end 202.784099 49.875499) (width 1) (layer F.Cu) (net 3))
  (segment (start 201.779399 54.371569) (end 201.779399 50.880199) (width 1) (layer F.Cu) (net 3))
  (segment (start 202.34803 54.9402) (end 201.779399 54.371569) (width 1) (layer F.Cu) (net 3))
  (segment (start 203.4794 54.9402) (end 202.34803 54.9402) (width 1) (layer F.Cu) (net 3))
  (segment (start 227.6094 62.5602) (end 227.6094 67.6402) (width 1) (layer F.Cu) (net 3))
  (segment (start 228.473 92.075) (end 228.473 86.995) (width 1) (layer F.Cu) (net 3))
  (segment (start 228.473 86.995) (end 228.473 85.36) (width 1) (layer F.Cu) (net 3))
  (segment (start 227.5713 62.5221) (end 227.6094 62.5602) (width 1) (layer F.Cu) (net 3))
  (segment (start 227.5713 59.7408) (end 227.5713 62.5221) (width 1) (layer F.Cu) (net 3))
  (segment (start 234.061 51.6255) (end 234.061 53.2511) (width 1) (layer F.Cu) (net 3))
  (segment (start 234.061 53.2511) (end 227.5713 59.7408) (width 1) (layer F.Cu) (net 3))
  (segment (start 202.784099 49.875499) (end 232.310999 49.875499) (width 1) (layer F.Cu) (net 3))
  (segment (start 202.126298 50.5333) (end 179.07 50.5333) (width 1) (layer F.Cu) (net 3))
  (segment (start 202.784099 49.875499) (end 202.126298 50.5333) (width 1) (layer F.Cu) (net 3))
  (segment (start 229.8794 67.6402) (end 227.6094 67.6402) (width 1) (layer F.Cu) (net 3))
  (segment (start 235.899901 73.660701) (end 229.8794 67.6402) (width 1) (layer F.Cu) (net 3))
  (segment (start 228.473 85.36) (end 235.899901 77.933099) (width 1) (layer F.Cu) (net 3))
  (segment (start 235.899901 77.933099) (end 235.899901 73.660701) (width 1) (layer F.Cu) (net 3))
  (segment (start 180.650203 76.900199) (end 177.537199 76.900199) (width 1) (layer F.Cu) (net 3))
  (segment (start 194.77921 97.212212) (end 224.970788 97.212212) (width 1) (layer F.Cu) (net 3))
  (segment (start 224.970788 97.212212) (end 228.473 93.71) (width 1) (layer F.Cu) (net 3))
  (segment (start 183.163903 74.386499) (end 180.650203 76.900199) (width 1) (layer F.Cu) (net 3))
  (segment (start 204.196801 79.472201) (end 203.065431 79.472201) (width 1) (layer F.Cu) (net 3))
  (segment (start 177.357199 79.790201) (end 194.77921 97.212212) (width 1) (layer F.Cu) (net 3))
  (segment (start 197.979729 74.386499) (end 183.163903 74.386499) (width 1) (layer F.Cu) (net 3))
  (segment (start 203.065431 79.472201) (end 197.979729 74.386499) (width 1) (layer F.Cu) (net 3))
  (segment (start 228.473 93.71) (end 228.473 92.075) (width 1) (layer F.Cu) (net 3))
  (segment (start 177.537199 76.900199) (end 177.357199 77.080199) (width 1) (layer F.Cu) (net 3))
  (segment (start 177.357199 77.080199) (end 177.357199 79.790201) (width 1) (layer F.Cu) (net 3))
  (segment (start 220.48094 67.6402) (end 216.1794 67.6402) (width 0.4) (layer F.Cu) (net 4))
  (segment (start 222.15094 67.6402) (end 220.48094 67.6402) (width 0.4) (layer F.Cu) (net 4))
  (segment (start 196.8119 57.5056) (end 194.2084 54.9021) (width 0.4) (layer F.Cu) (net 5))
  (segment (start 202.32263 57.5056) (end 196.8119 57.5056) (width 0.4) (layer F.Cu) (net 5))
  (segment (start 194.2084 54.9021) (end 194.2084 52.5907) (width 0.4) (layer F.Cu) (net 5))
  (segment (start 203.4794 57.4802) (end 202.34803 57.4802) (width 0.4) (layer F.Cu) (net 5))
  (segment (start 202.34803 57.4802) (end 202.32263 57.5056) (width 0.4) (layer F.Cu) (net 5))
  (segment (start 220.48094 65.1002) (end 216.1794 65.1002) (width 0.4) (layer F.Cu) (net 6))
  (segment (start 222.15094 65.1002) (end 220.48094 65.1002) (width 0.4) (layer F.Cu) (net 6))
  (segment (start 191.6684 54.991) (end 191.6684 52.5907) (width 0.4) (layer F.Cu) (net 7))
  (segment (start 203.4794 60.0202) (end 196.6976 60.0202) (width 0.4) (layer F.Cu) (net 7))
  (segment (start 196.6976 60.0202) (end 191.6684 54.991) (width 0.4) (layer F.Cu) (net 7))
  (segment (start 222.15094 62.5602) (end 216.1794 62.5602) (width 0.4) (layer F.Cu) (net 8))
  (segment (start 189.1284 53.792781) (end 189.1284 52.5907) (width 0.4) (layer F.Cu) (net 9))
  (segment (start 202.34803 62.5602) (end 202.32263 62.5856) (width 0.4) (layer F.Cu) (net 9))
  (segment (start 203.4794 62.5602) (end 202.34803 62.5602) (width 0.4) (layer F.Cu) (net 9))
  (segment (start 202.32263 62.5856) (end 196.2531 62.5856) (width 0.4) (layer F.Cu) (net 9))
  (segment (start 196.2531 62.5856) (end 189.1284 55.4609) (width 0.4) (layer F.Cu) (net 9))
  (segment (start 189.1284 55.4609) (end 189.1284 53.792781) (width 0.4) (layer F.Cu) (net 9))
  (segment (start 186.5884 53.1876) (end 186.5884 52.5907) (width 0.4) (layer F.Cu) (net 11))
  (segment (start 186.5884 53.8407) (end 186.5884 52.5907) (width 0.4) (layer F.Cu) (net 11))
  (segment (start 186.5884 55.920268) (end 186.5884 53.8407) (width 0.4) (layer F.Cu) (net 11))
  (segment (start 195.768332 65.1002) (end 186.5884 55.920268) (width 0.4) (layer F.Cu) (net 11))
  (segment (start 203.4794 65.1002) (end 195.768332 65.1002) (width 0.4) (layer F.Cu) (net 11))
  (segment (start 228.981 52.827581) (end 226.868381 54.9402) (width 0.4) (layer F.Cu) (net 12))
  (segment (start 217.31077 54.9402) (end 216.1794 54.9402) (width 0.4) (layer F.Cu) (net 12))
  (segment (start 226.868381 54.9402) (end 217.31077 54.9402) (width 0.4) (layer F.Cu) (net 12))
  (segment (start 228.981 51.6255) (end 228.981 52.827581) (width 0.4) (layer F.Cu) (net 12))
  (segment (start 208.685 64.9746) (end 203.4794 70.1802) (width 1) (layer F.Cu) (net 13))
  (segment (start 210.1215 64.9746) (end 208.685 64.9746) (width 1) (layer F.Cu) (net 13))
  (segment (start 209.918702 88.9903) (end 204.196801 94.712201) (width 1) (layer F.Cu) (net 13))
  (segment (start 210.8073 88.9903) (end 209.918702 88.9903) (width 1) (layer F.Cu) (net 13))
  (segment (start 213.5886 68.4417) (end 213.5886 86.209) (width 1) (layer F.Cu) (net 13))
  (segment (start 210.1215 64.9746) (end 213.5886 68.4417) (width 1) (layer F.Cu) (net 13))
  (segment (start 213.5886 86.209) (end 211.6073 88.1903) (width 1) (layer F.Cu) (net 13))
  (segment (start 211.6073 88.1903) (end 210.8073 88.9903) (width 1) (layer F.Cu) (net 13))
  (segment (start 186.4995 66.6496) (end 185.1787 66.6496) (width 1) (layer F.Cu) (net 13))
  (segment (start 189.9793 70.1294) (end 186.4995 66.6496) (width 1) (layer F.Cu) (net 13))
  (segment (start 203.4794 70.1802) (end 203.4286 70.1294) (width 1) (layer F.Cu) (net 13))
  (segment (start 203.4286 70.1294) (end 189.9793 70.1294) (width 1) (layer F.Cu) (net 13))
  (segment (start 225.6663 52.4002) (end 226.441 51.6255) (width 0.4) (layer F.Cu) (net 14))
  (segment (start 216.1794 52.4002) (end 225.6663 52.4002) (width 0.4) (layer F.Cu) (net 14))
  (segment (start 217.844902 75.9841) (end 216.896801 76.932201) (width 0.4) (layer F.Cu) (net 15))
  (segment (start 226.5299 75.9841) (end 217.844902 75.9841) (width 0.4) (layer F.Cu) (net 15))
  (segment (start 225.821801 79.472201) (end 218.028171 79.472201) (width 0.4) (layer F.Cu) (net 16))
  (segment (start 228.219901 77.074101) (end 225.821801 79.472201) (width 0.4) (layer F.Cu) (net 16))
  (segment (start 228.219901 76.834099) (end 228.219901 77.074101) (width 0.4) (layer F.Cu) (net 16))
  (segment (start 218.028171 79.472201) (end 216.896801 79.472201) (width 0.4) (layer F.Cu) (net 16))
  (segment (start 229.0699 75.9841) (end 228.219901 76.834099) (width 0.4) (layer F.Cu) (net 16))
  (segment (start 186.69 83.5025) (end 186.69 76.1365) (width 0.4) (layer F.Cu) (net 18))
  (segment (start 204.196801 89.632201) (end 192.819701 89.632201) (width 0.4) (layer F.Cu) (net 18))
  (segment (start 192.819701 89.632201) (end 186.69 83.5025) (width 0.4) (layer F.Cu) (net 18))
  (segment (start 204.196801 87.092201) (end 193.365801 87.092201) (width 0.4) (layer F.Cu) (net 19))
  (segment (start 189.23 82.9564) (end 189.23 76.1365) (width 0.4) (layer F.Cu) (net 19))
  (segment (start 193.365801 87.092201) (end 189.23 82.9564) (width 0.4) (layer F.Cu) (net 19))
  (segment (start 222.917339 87.092201) (end 223.01454 86.995) (width 0.4) (layer F.Cu) (net 20))
  (segment (start 216.896801 87.092201) (end 222.917339 87.092201) (width 0.4) (layer F.Cu) (net 20))
  (segment (start 204.196801 84.552201) (end 193.746801 84.552201) (width 0.4) (layer F.Cu) (net 21))
  (segment (start 191.77 82.5754) (end 191.77 76.1365) (width 0.4) (layer F.Cu) (net 21))
  (segment (start 193.746801 84.552201) (end 191.77 82.5754) (width 0.4) (layer F.Cu) (net 21))
  (segment (start 216.994002 89.535) (end 216.896801 89.632201) (width 0.4) (layer F.Cu) (net 22))
  (segment (start 223.01454 89.535) (end 216.994002 89.535) (width 0.4) (layer F.Cu) (net 22))
  (segment (start 204.196801 82.012201) (end 194.813601 82.012201) (width 0.4) (layer F.Cu) (net 23))
  (segment (start 194.31 81.5086) (end 194.31 76.1365) (width 0.4) (layer F.Cu) (net 23))
  (segment (start 194.813601 82.012201) (end 194.31 81.5086) (width 0.4) (layer F.Cu) (net 23))
  (segment (start 216.994002 92.075) (end 216.896801 92.172201) (width 0.4) (layer F.Cu) (net 24))
  (segment (start 223.01454 92.075) (end 216.994002 92.075) (width 0.4) (layer F.Cu) (net 24))
  (segment (start 233.299901 76.834099) (end 234.1499 75.9841) (width 0.4) (layer F.Cu) (net 25))
  (segment (start 179.5653 78.6384) (end 179.8828 78.6384) (width 0.4) (layer F.Cu) (net 25))
  (segment (start 223.093724 96.112202) (end 226.602999 92.602927) (width 0.4) (layer F.Cu) (net 25))
  (segment (start 226.602999 83.531001) (end 233.299901 76.834099) (width 0.4) (layer F.Cu) (net 25))
  (segment (start 179.8828 78.6384) (end 197.356602 96.112202) (width 0.4) (layer F.Cu) (net 25))
  (segment (start 226.602999 92.602927) (end 226.602999 83.531001) (width 0.4) (layer F.Cu) (net 25))
  (segment (start 197.356602 96.112202) (end 223.093724 96.112202) (width 0.4) (layer F.Cu) (net 25))
  (segment (start 175.66254 55.52186) (end 174.6631 55.52186) (width 0.4) (layer F.Cu) (net 26))
  (segment (start 178.41844 55.52186) (end 175.66254 55.52186) (width 0.4) (layer F.Cu) (net 26))
  (segment (start 179.07 54.8703) (end 178.41844 55.52186) (width 0.4) (layer F.Cu) (net 26))
  (segment (start 179.07 53.8353) (end 179.07 54.8703) (width 0.4) (layer F.Cu) (net 26))
  (segment (start 173.463659 53.222501) (end 173.66366 53.0225) (width 0.4) (layer F.Cu) (net 27))
  (segment (start 173.66366 53.0225) (end 174.6631 53.0225) (width 0.4) (layer F.Cu) (net 27))
  (segment (start 179.5653 74.3014) (end 176.6697 71.4058) (width 0.4) (layer F.Cu) (net 27))
  (segment (start 176.6697 71.4058) (end 176.6697 62.7888) (width 0.4) (layer F.Cu) (net 27))
  (segment (start 179.5653 75.3364) (end 179.5653 74.3014) (width 0.4) (layer F.Cu) (net 27))
  (segment (start 176.6697 62.7888) (end 173.463659 59.582759) (width 0.4) (layer F.Cu) (net 27))
  (segment (start 173.463659 59.582759) (end 173.463659 53.222501) (width 0.4) (layer F.Cu) (net 27))

)
